"TITLE","REQUESTS"
"cars",47103
"transformers",1148
"007",448
"eragon",256
"indiana jones",247
"spore",166
"super smash bros. brawl",70
"alone in the dark",66
"tiger woods pga tour",60
"rogue trooper",34
"madden nfl 07",22
"super paper mario",16
"call of duty 3",12
"red steel",9
"open season",8
"super mario galaxy",5
"wii sports",3
"fire emblem wii",2
"dragon ball z tenkaichi 2",2
"sd gundam",2
"shrek the third",1
